\relax 
\bibcite{baker}{{1966}{}{{}}{{}}}
\bibdata{punchlineNotes}
\bibstyle{apsrev4-1}
\citation{REVTEX41Control}
\citation{apsrev41Control}
\providecommand\NAT@force@numbers{}\NAT@force@numbers
\newlabel{FirstPage}{{}{1}{}{}{}}
\@writefile{toc}{\contentsline {title}{Proton CRs analysis using $\gamma $-ray from Earth's Limb with Pass8 \textit  {Fermi} data}{1}{}}
\@writefile{toc}{\contentsline {abstract}{Abstract}{1}{}}
\@writefile{toc}{\contentsline {section}{\numberline {I}Introduction}{1}{}}
\@writefile{toc}{\contentsline {section}{\numberline {II}Data sets and Analysis Method}{1}{}}
\@writefile{toc}{\contentsline {section}{\numberline {III}Results}{1}{}}
\@writefile{toc}{\contentsline {section}{\numberline {IV}Discussion and Conclusion}{1}{}}
\@writefile{toc}{\contentsline {section}{\numberline {V}Acknowledgement}{1}{}}
\@writefile{toc}{\contentsline {section}{\numberline {}References}{1}{}}
\newlabel{LastBibItem}{{1}{1}{}{}{}}
\newlabel{LastPage}{{}{1}{}{}{}}
