\headcommand {\slideentry {0}{0}{1}{1/1}{}{0}}
\headcommand {\beamer@framepages {1}{1}}
\headcommand {\slideentry {0}{0}{2}{2/2}{}{0}}
\headcommand {\beamer@framepages {2}{2}}
\headcommand {\sectionentry {1}{Objectives}{3}{Objectives}{0}}
\headcommand {\beamer@sectionpages {1}{2}}
\headcommand {\beamer@subsectionpages {1}{2}}
\headcommand {\slideentry {1}{0}{1}{3/3}{}{0}}
\headcommand {\beamer@framepages {3}{3}}
\headcommand {\sectionentry {2}{Flux extraction}{4}{Flux extraction}{0}}
\headcommand {\beamer@sectionpages {3}{3}}
\headcommand {\beamer@subsectionpages {3}{3}}
\headcommand {\beamer@subsectionentry {0}{2}{1}{4}{Schematics of limb $\gamma $-ray production}}\headcommand {\beamer@subsectionpages {4}{3}}
\headcommand {\slideentry {2}{1}{1}{4/4}{Schematics of limb $\gamma $-ray production}{0}}
\headcommand {\beamer@framepages {4}{4}}
\headcommand {\beamer@subsectionentry {0}{2}{2}{5}{Data set}}\headcommand {\beamer@subsectionpages {4}{4}}
\headcommand {\slideentry {2}{2}{1}{5/5}{Data set}{0}}
\headcommand {\beamer@framepages {5}{5}}
\headcommand {\beamer@subsectionentry {0}{2}{3}{6}{Calculation}}\headcommand {\beamer@subsectionpages {5}{5}}
\headcommand {\slideentry {2}{3}{1}{6/6}{Calculation}{0}}
\headcommand {\beamer@framepages {6}{6}}
\headcommand {\slideentry {2}{3}{2}{7/7}{Calculation}{0}}
\headcommand {\beamer@framepages {7}{7}}
\headcommand {\slideentry {2}{3}{3}{8/8}{Calculation}{0}}
\headcommand {\beamer@framepages {8}{8}}
\headcommand {\slideentry {2}{3}{4}{9/9}{Calculation}{0}}
\headcommand {\beamer@framepages {9}{9}}
\headcommand {\slideentry {2}{3}{5}{10/10}{Calculation}{0}}
\headcommand {\beamer@framepages {10}{10}}
\headcommand {\sectionentry {3}{Analysis}{11}{Analysis}{0}}
\headcommand {\beamer@sectionpages {4}{10}}
\headcommand {\beamer@subsectionpages {6}{10}}
\headcommand {\beamer@subsectionentry {0}{3}{1}{11}{K$\&$O model}}\headcommand {\beamer@subsectionpages {11}{10}}
\headcommand {\slideentry {3}{1}{1}{11/11}{K$\&$O model}{0}}
\headcommand {\beamer@framepages {11}{11}}
\headcommand {\beamer@subsectionentry {0}{3}{2}{12}{Optimization}}\headcommand {\beamer@subsectionpages {11}{11}}
\headcommand {\slideentry {3}{2}{1}{12/12}{Optimization}{0}}
\headcommand {\beamer@framepages {12}{12}}
\headcommand {\beamer@subsectionentry {0}{3}{3}{13}{Results}}\headcommand {\beamer@subsectionpages {12}{12}}
\headcommand {\slideentry {3}{3}{1}{13/13}{Results}{0}}
\headcommand {\beamer@framepages {13}{13}}
\headcommand {\slideentry {3}{3}{2}{14/14}{Results}{0}}
\headcommand {\beamer@framepages {14}{14}}
\headcommand {\sectionentry {4}{To do list}{15}{To do list}{0}}
\headcommand {\beamer@sectionpages {11}{14}}
\headcommand {\beamer@subsectionpages {13}{14}}
\headcommand {\slideentry {4}{0}{1}{15/15}{}{0}}
\headcommand {\beamer@framepages {15}{15}}
\headcommand {\sectionentry {6}{Reference}{16}{Reference}{0}}
\headcommand {\beamer@sectionpages {16}{15}}
\headcommand {\beamer@subsectionpages {16}{15}}
\headcommand {\slideentry {6}{0}{1}{16/16}{}{0}}
\headcommand {\beamer@framepages {16}{16}}
\headcommand {\slideentry {7}{0}{1}{17/17}{}{0}}
\headcommand {\beamer@framepages {17}{17}}
\headcommand {\slideentry {7}{0}{2}{18/18}{}{0}}
\headcommand {\beamer@framepages {18}{18}}
\headcommand {\slideentry {7}{0}{3}{19/19}{}{0}}
\headcommand {\beamer@framepages {19}{19}}
\headcommand {\slideentry {7}{0}{4}{20/20}{}{0}}
\headcommand {\beamer@framepages {20}{20}}
\headcommand {\slideentry {7}{0}{5}{21/21}{}{0}}
\headcommand {\beamer@framepages {21}{21}}
\headcommand {\slideentry {7}{0}{6}{22/22}{}{0}}
\headcommand {\beamer@framepages {22}{22}}
\headcommand {\beamer@partpages {1}{22}}
\headcommand {\beamer@subsectionpages {17}{22}}
\headcommand {\beamer@sectionpages {17}{22}}
\headcommand {\beamer@documentpages {22}}
\headcommand {\def \inserttotalframenumber {22}}
