\BOOKMARK [2][]{Outline0.1}{Objectives}{}% 1
\BOOKMARK [2][]{Outline0.2}{Flux extraction}{}% 2
\BOOKMARK [3][]{Outline0.2.1.4}{Schematics of limb -ray production}{Outline0.2}% 3
\BOOKMARK [3][]{Outline0.2.2.5}{Data set}{Outline0.2}% 4
\BOOKMARK [3][]{Outline0.2.3.6}{Calculation}{Outline0.2}% 5
\BOOKMARK [2][]{Outline0.3}{Analysis}{}% 6
\BOOKMARK [3][]{Outline0.3.1.11}{Kachelrieß and Ostapchenko model}{Outline0.3}% 7
\BOOKMARK [3][]{Outline0.3.2.12}{Optimization}{Outline0.3}% 8
\BOOKMARK [3][]{Outline0.3.3.13}{Results}{Outline0.3}% 9
\BOOKMARK [2][]{Outline0.4}{To do list}{}% 10
\BOOKMARK [2][]{Outline0.6}{Reference}{}% 11
