\relax 
\providecommand\hyper@newdestlabel[2]{}
\providecommand\HyperFirstAtBeginDocument{\AtBeginDocument}
\HyperFirstAtBeginDocument{\ifx\hyper@anchor\@undefined
\global\let\oldcontentsline\contentsline
\gdef\contentsline#1#2#3#4{\oldcontentsline{#1}{#2}{#3}}
\global\let\oldnewlabel\newlabel
\gdef\newlabel#1#2{\newlabelxx{#1}#2}
\gdef\newlabelxx#1#2#3#4#5#6{\oldnewlabel{#1}{{#2}{#3}}}
\AtEndDocument{\ifx\hyper@anchor\@undefined
\let\contentsline\oldcontentsline
\let\newlabel\oldnewlabel
\fi}
\fi}
\global\let\hyper@last\relax 
\gdef\HyperFirstAtBeginDocument#1{#1}
\providecommand\HyField@AuxAddToFields[1]{}
\providecommand\HyField@AuxAddToCoFields[2]{}
\@writefile{nav}{\headcommand {\slideentry {0}{0}{1}{1/1}{}{0}}}
\@writefile{nav}{\headcommand {\beamer@framepages {1}{1}}}
\@writefile{nav}{\headcommand {\slideentry {0}{0}{2}{2/2}{}{0}}}
\@writefile{nav}{\headcommand {\beamer@framepages {2}{2}}}
\@writefile{toc}{\beamer@sectionintoc {1}{Background}{3}{0}{1}}
\@writefile{nav}{\headcommand {\sectionentry {1}{Background}{3}{Background}{0}}}
\@writefile{nav}{\headcommand {\beamer@sectionpages {1}{2}}}
\@writefile{nav}{\headcommand {\beamer@subsectionpages {1}{2}}}
\@writefile{nav}{\headcommand {\slideentry {1}{0}{1}{3/3}{}{0}}}
\@writefile{nav}{\headcommand {\beamer@framepages {3}{3}}}
\@writefile{nav}{\headcommand {\slideentry {1}{0}{2}{4/4}{}{0}}}
\@writefile{nav}{\headcommand {\beamer@framepages {4}{4}}}
\@writefile{toc}{\beamer@sectionintoc {2}{Objectives}{5}{0}{2}}
\@writefile{nav}{\headcommand {\sectionentry {2}{Objectives}{5}{Objectives}{0}}}
\@writefile{nav}{\headcommand {\beamer@sectionpages {3}{4}}}
\@writefile{nav}{\headcommand {\beamer@subsectionpages {3}{4}}}
\@writefile{nav}{\headcommand {\slideentry {2}{0}{1}{5/5}{}{0}}}
\@writefile{nav}{\headcommand {\beamer@framepages {5}{5}}}
\@writefile{toc}{\beamer@sectionintoc {3}{Flux extraction}{6}{0}{3}}
\@writefile{nav}{\headcommand {\sectionentry {3}{Flux extraction}{6}{Flux extraction}{0}}}
\@writefile{nav}{\headcommand {\beamer@sectionpages {5}{5}}}
\@writefile{nav}{\headcommand {\beamer@subsectionpages {5}{5}}}
\@writefile{toc}{\beamer@subsectionintoc {3}{1}{Schematics of limb $\gamma $-ray production}{6}{0}{3}}
\@writefile{nav}{\headcommand {\beamer@subsectionentry {0}{3}{1}{6}{Schematics of limb $\gamma $-ray production}}\headcommand {\beamer@subsectionpages {6}{5}}}
\@writefile{nav}{\headcommand {\slideentry {3}{1}{1}{6/6}{Schematics of limb $\gamma $-ray production}{0}}}
\@writefile{nav}{\headcommand {\beamer@framepages {6}{6}}}
\@writefile{toc}{\beamer@subsectionintoc {3}{2}{Data set}{7}{0}{3}}
\@writefile{nav}{\headcommand {\beamer@subsectionentry {0}{3}{2}{7}{Data set}}\headcommand {\beamer@subsectionpages {6}{6}}}
\@writefile{nav}{\headcommand {\slideentry {3}{2}{1}{7/7}{Data set}{0}}}
\@writefile{nav}{\headcommand {\beamer@framepages {7}{7}}}
\@writefile{toc}{\beamer@subsectionintoc {3}{3}{Calculation}{8}{0}{3}}
\@writefile{nav}{\headcommand {\beamer@subsectionentry {0}{3}{3}{8}{Calculation}}\headcommand {\beamer@subsectionpages {7}{7}}}
\@writefile{nav}{\headcommand {\slideentry {3}{3}{1}{8/14}{Calculation}{0}}}
\@writefile{nav}{\headcommand {\beamer@framepages {8}{14}}}
\@writefile{nav}{\headcommand {\slideentry {3}{3}{2}{15/15}{Calculation}{0}}}
\@writefile{nav}{\headcommand {\beamer@framepages {15}{15}}}
\@writefile{nav}{\headcommand {\slideentry {3}{3}{3}{16/16}{Calculation}{0}}}
\@writefile{nav}{\headcommand {\beamer@framepages {16}{16}}}
\@writefile{nav}{\headcommand {\slideentry {3}{3}{4}{17/17}{Calculation}{0}}}
\@writefile{nav}{\headcommand {\beamer@framepages {17}{17}}}
\@writefile{nav}{\headcommand {\slideentry {3}{3}{5}{18/18}{Calculation}{0}}}
\@writefile{nav}{\headcommand {\beamer@framepages {18}{18}}}
\@writefile{toc}{\beamer@sectionintoc {4}{Analysis}{19}{0}{4}}
\@writefile{nav}{\headcommand {\sectionentry {4}{Analysis}{19}{Analysis}{0}}}
\@writefile{nav}{\headcommand {\beamer@sectionpages {6}{18}}}
\@writefile{nav}{\headcommand {\beamer@subsectionpages {8}{18}}}
\@writefile{toc}{\beamer@subsectionintoc {4}{1}{Kachelrie$\beta $ and Ostapchenko model}{19}{0}{4}}
\@writefile{nav}{\headcommand {\beamer@subsectionentry {0}{4}{1}{19}{K$\&$O model}}\headcommand {\beamer@subsectionpages {19}{18}}}
\@writefile{nav}{\headcommand {\slideentry {4}{1}{1}{19/19}{K$\&$O model}{0}}}
\@writefile{nav}{\headcommand {\beamer@framepages {19}{19}}}
\@writefile{toc}{\beamer@subsectionintoc {4}{2}{Optimization}{20}{0}{4}}
\@writefile{nav}{\headcommand {\beamer@subsectionentry {0}{4}{2}{20}{Optimization}}\headcommand {\beamer@subsectionpages {19}{19}}}
\@writefile{nav}{\headcommand {\slideentry {4}{2}{1}{20/21}{Optimization}{0}}}
\@writefile{nav}{\headcommand {\beamer@framepages {20}{21}}}
\@writefile{toc}{\beamer@subsectionintoc {4}{3}{Results}{22}{0}{4}}
\@writefile{nav}{\headcommand {\beamer@subsectionentry {0}{4}{3}{22}{Results}}\headcommand {\beamer@subsectionpages {20}{21}}}
\@writefile{nav}{\headcommand {\slideentry {4}{3}{1}{22/22}{Results}{0}}}
\@writefile{nav}{\headcommand {\beamer@framepages {22}{22}}}
\@writefile{nav}{\headcommand {\slideentry {4}{3}{2}{23/23}{Results}{0}}}
\@writefile{nav}{\headcommand {\beamer@framepages {23}{23}}}
\@writefile{toc}{\beamer@subsectionintoc {4}{4}{Monte Carlo simlation}{24}{0}{4}}
\@writefile{nav}{\headcommand {\beamer@subsectionentry {0}{4}{4}{24}{Monte Carlo simlation}}\headcommand {\beamer@subsectionpages {22}{23}}}
\@writefile{nav}{\headcommand {\slideentry {4}{4}{1}{24/25}{Monte Carlo simlation}{0}}}
\@writefile{nav}{\headcommand {\beamer@framepages {24}{25}}}
\@writefile{nav}{\headcommand {\slideentry {4}{4}{2}{26/26}{Monte Carlo simlation}{0}}}
\@writefile{nav}{\headcommand {\beamer@framepages {26}{26}}}
\@writefile{nav}{\headcommand {\slideentry {4}{4}{3}{27/27}{Monte Carlo simlation}{0}}}
\@writefile{nav}{\headcommand {\beamer@framepages {27}{27}}}
\@writefile{toc}{\beamer@sectionintoc {5}{To do list}{28}{0}{5}}
\@writefile{nav}{\headcommand {\sectionentry {5}{To do list}{28}{To do list}{0}}}
\@writefile{nav}{\headcommand {\beamer@sectionpages {19}{27}}}
\@writefile{nav}{\headcommand {\beamer@subsectionpages {24}{27}}}
\@writefile{nav}{\headcommand {\slideentry {5}{0}{1}{28/28}{}{0}}}
\@writefile{nav}{\headcommand {\beamer@framepages {28}{28}}}
\@writefile{nav}{\headcommand {\slideentry {6}{0}{1}{29/29}{}{0}}}
\@writefile{nav}{\headcommand {\beamer@framepages {29}{29}}}
\@writefile{nav}{\headcommand {\slideentry {6}{0}{2}{30/30}{}{0}}}
\@writefile{nav}{\headcommand {\beamer@framepages {30}{30}}}
\@writefile{toc}{\beamer@sectionintoc {7}{Reference}{31}{0}{6}}
\@writefile{nav}{\headcommand {\sectionentry {7}{Reference}{31}{Reference}{0}}}
\@writefile{nav}{\headcommand {\beamer@sectionpages {29}{30}}}
\@writefile{nav}{\headcommand {\beamer@subsectionpages {29}{30}}}
\@writefile{nav}{\headcommand {\slideentry {7}{0}{1}{31/31}{}{0}}}
\@writefile{nav}{\headcommand {\beamer@framepages {31}{31}}}
\@writefile{nav}{\headcommand {\slideentry {8}{0}{1}{32/32}{}{0}}}
\@writefile{nav}{\headcommand {\beamer@framepages {32}{32}}}
\@writefile{nav}{\headcommand {\slideentry {8}{0}{2}{33/33}{}{0}}}
\@writefile{nav}{\headcommand {\beamer@framepages {33}{33}}}
\@writefile{nav}{\headcommand {\slideentry {8}{0}{3}{34/34}{}{0}}}
\@writefile{nav}{\headcommand {\beamer@framepages {34}{34}}}
\@writefile{nav}{\headcommand {\beamer@partpages {1}{34}}}
\@writefile{nav}{\headcommand {\beamer@subsectionpages {32}{34}}}
\@writefile{nav}{\headcommand {\beamer@sectionpages {32}{34}}}
\@writefile{nav}{\headcommand {\beamer@documentpages {34}}}
\@writefile{nav}{\headcommand {\def \inserttotalframenumber {26}}}
