# Fdb version 3
["pdflatex"] 1531637804 "/Users/jab/Documents/thesis_bsc/Slide_วทท/slide_progress.tex" "slide_progress.pdf" "slide_progress" 1531637808
  "/Users/jab/Documents/thesis_bsc/Slide_วทท/slide_progress.tex" 1531637804 26468 cf012a14dee4bd18b127782e4d3dd753 ""
  "/usr/local/texlive/2017/texmf-dist/fonts/map/fontname/texfonts.map" 1480098670 3287 e6b82fe08f5336d4d5ebc73fb1152e87 ""
  "/usr/local/texlive/2017/texmf-dist/fonts/tfm/public/amsfonts/cmextra/cmex7.tfm" 1480098698 1004 54797486969f23fa377b128694d548df ""
  "/usr/local/texlive/2017/texmf-dist/fonts/tfm/public/amsfonts/cmextra/cmex8.tfm" 1480098698 988 bdf658c3bfc2d96d3c8b02cfc1c94c20 ""
  "/usr/local/texlive/2017/texmf-dist/fonts/tfm/public/amsfonts/symbols/msam10.tfm" 1480098698 916 f87d7c45f9c908e672703b83b72241a3 ""
  "/usr/local/texlive/2017/texmf-dist/fonts/tfm/public/amsfonts/symbols/msam5.tfm" 1480098698 924 9904cf1d39e9767e7a3622f2a125a565 ""
  "/usr/local/texlive/2017/texmf-dist/fonts/tfm/public/amsfonts/symbols/msam7.tfm" 1480098698 928 2dc8d444221b7a635bb58038579b861a ""
  "/usr/local/texlive/2017/texmf-dist/fonts/tfm/public/amsfonts/symbols/msbm10.tfm" 1480098698 908 2921f8a10601f252058503cc6570e581 ""
  "/usr/local/texlive/2017/texmf-dist/fonts/tfm/public/amsfonts/symbols/msbm5.tfm" 1480098698 940 75ac932a52f80982a9f8ea75d03a34cf ""
  "/usr/local/texlive/2017/texmf-dist/fonts/tfm/public/amsfonts/symbols/msbm7.tfm" 1480098698 940 228d6584342e91276bf566bcf9716b83 ""
  "/usr/local/texlive/2017/texmf-dist/fonts/tfm/public/cm/cmex10.tfm" 1480098701 992 662f679a0b3d2d53c1b94050fdaa3f50 ""
  "/usr/local/texlive/2017/texmf-dist/fonts/tfm/public/cm/cmmi10.tfm" 1480098701 1528 abec98dbc43e172678c11b3b9031252a ""
  "/usr/local/texlive/2017/texmf-dist/fonts/tfm/public/cm/cmmi12.tfm" 1480098701 1524 4414a8315f39513458b80dfc63bff03a ""
  "/usr/local/texlive/2017/texmf-dist/fonts/tfm/public/cm/cmmi6.tfm" 1480098701 1512 f21f83efb36853c0b70002322c1ab3ad ""
  "/usr/local/texlive/2017/texmf-dist/fonts/tfm/public/cm/cmmi8.tfm" 1480098701 1520 eccf95517727cb11801f4f1aee3a21b4 ""
  "/usr/local/texlive/2017/texmf-dist/fonts/tfm/public/cm/cmr10.tfm" 1480098701 1296 45809c5a464d5f32c8f98ba97c1bb47f ""
  "/usr/local/texlive/2017/texmf-dist/fonts/tfm/public/cm/cmss10.tfm" 1480098701 1316 b636689f1933f24d1294acdf6041daaa ""
  "/usr/local/texlive/2017/texmf-dist/fonts/tfm/public/cm/cmss12.tfm" 1480098701 1324 37b971caf729d7edd9cbb9f9b0ea76eb ""
  "/usr/local/texlive/2017/texmf-dist/fonts/tfm/public/cm/cmss17.tfm" 1480098701 1320 ed93d62c5f2c16343826001f03341dbc ""
  "/usr/local/texlive/2017/texmf-dist/fonts/tfm/public/cm/cmss8.tfm" 1480098701 1296 d77f431d10d47c8ea2cc18cf45346274 ""
  "/usr/local/texlive/2017/texmf-dist/fonts/tfm/public/cm/cmssbx10.tfm" 1480098701 1272 e2d13f0df30bf3ad990bb9d028e37f34 ""
  "/usr/local/texlive/2017/texmf-dist/fonts/tfm/public/cm/cmssi10.tfm" 1480098701 1520 ca2bb4b78ac9800bd686e30c6d19ef95 ""
  "/usr/local/texlive/2017/texmf-dist/fonts/tfm/public/cm/cmssi12.tfm" 1480098701 1532 48589e216c7fb787d0f3ee1a3047705d ""
  "/usr/local/texlive/2017/texmf-dist/fonts/tfm/public/cm/cmssi8.tfm" 1480098701 1500 7f49257eca65a87057f17452e9fe3ef5 ""
  "/usr/local/texlive/2017/texmf-dist/fonts/tfm/public/cm/cmsy10.tfm" 1480098701 1124 6c73e740cf17375f03eec0ee63599741 ""
  "/usr/local/texlive/2017/texmf-dist/fonts/tfm/public/cm/cmsy6.tfm" 1480098701 1116 933a60c408fc0a863a92debe84b2d294 ""
  "/usr/local/texlive/2017/texmf-dist/fonts/tfm/public/cm/cmsy8.tfm" 1480098701 1120 8b7d695260f3cff42e636090a8002094 ""
  "/usr/local/texlive/2017/texmf-dist/fonts/tfm/public/sansmathaccent/mathkerncmssi10.tfm" 1480098717 1696 aaa5bbd1f47f001247d42218ce371101 ""
  "/usr/local/texlive/2017/texmf-dist/fonts/tfm/public/sansmathaccent/mathkerncmssi12.tfm" 1480098717 1708 6d4e701533a08297ca48058e38aa9e38 ""
  "/usr/local/texlive/2017/texmf-dist/fonts/tfm/public/sansmathaccent/mathkerncmssi8.tfm" 1480098717 1676 fb6c6a335484692abff897d6e8965829 ""
  "/usr/local/texlive/2017/texmf-dist/fonts/type1/public/amsfonts/cm/cmex10.pfb" 1480098733 30251 6afa5cb1d0204815a708a080681d4674 ""
  "/usr/local/texlive/2017/texmf-dist/fonts/type1/public/amsfonts/cm/cmmi10.pfb" 1480098733 36299 5f9df58c2139e7edcf37c8fca4bd384d ""
  "/usr/local/texlive/2017/texmf-dist/fonts/type1/public/amsfonts/cm/cmmi12.pfb" 1480098733 36741 fa121aac0049305630cf160b86157ee4 ""
  "/usr/local/texlive/2017/texmf-dist/fonts/type1/public/amsfonts/cm/cmmi6.pfb" 1480098733 37166 8ab3487cbe3ab49ebce74c29ea2418db ""
  "/usr/local/texlive/2017/texmf-dist/fonts/type1/public/amsfonts/cm/cmmi7.pfb" 1480098733 36281 c355509802a035cadc5f15869451dcee ""
  "/usr/local/texlive/2017/texmf-dist/fonts/type1/public/amsfonts/cm/cmmi8.pfb" 1480098733 35469 70d41d2b9ea31d5d813066df7c99281c ""
  "/usr/local/texlive/2017/texmf-dist/fonts/type1/public/amsfonts/cm/cmss10.pfb" 1480098733 24457 5cbb7bdf209d5d1ce9892a9b80a307cc ""
  "/usr/local/texlive/2017/texmf-dist/fonts/type1/public/amsfonts/cm/cmss12.pfb" 1480098733 24393 3b7eb51a67a0a62aec5849271bdb9c2e ""
  "/usr/local/texlive/2017/texmf-dist/fonts/type1/public/amsfonts/cm/cmss17.pfb" 1480098733 24416 36515493f76659302880e2604105b074 ""
  "/usr/local/texlive/2017/texmf-dist/fonts/type1/public/amsfonts/cm/cmss8.pfb" 1480098733 24420 52dbb8e8aa0069a1b987309557f8d303 ""
  "/usr/local/texlive/2017/texmf-dist/fonts/type1/public/amsfonts/cm/cmssbx10.pfb" 1480098733 28902 2f5c04fd2884d1878057baa5aad22765 ""
  "/usr/local/texlive/2017/texmf-dist/fonts/type1/public/amsfonts/cm/cmssi10.pfb" 1480098733 25150 e0d09798d232ab9d00c5c0a8df6cc22d ""
  "/usr/local/texlive/2017/texmf-dist/fonts/type1/public/amsfonts/cm/cmssi12.pfb" 1480098733 25095 0ff1f6d531b320ecbbd6ea84d875816c ""
  "/usr/local/texlive/2017/texmf-dist/fonts/type1/public/amsfonts/cm/cmssi8.pfb" 1480098733 25168 33771b85f45c82138dd7745db7092d1c ""
  "/usr/local/texlive/2017/texmf-dist/fonts/type1/public/amsfonts/cm/cmsy10.pfb" 1480098733 32569 5e5ddc8df908dea60932f3c484a54c0d ""
  "/usr/local/texlive/2017/texmf-dist/fonts/type1/public/amsfonts/cm/cmsy7.pfb" 1480098733 32716 08e384dc442464e7285e891af9f45947 ""
  "/usr/local/texlive/2017/texmf-dist/fonts/type1/public/amsfonts/cm/cmsy8.pfb" 1480098733 32626 4f5c1b83753b1dd3a97d1b399a005b4b ""
  "/usr/local/texlive/2017/texmf-dist/fonts/type1/public/amsfonts/cmextra/cmex8.pfb" 1480098733 30273 87a352d78b6810ae5cfdc68d2fb827b2 ""
  "/usr/local/texlive/2017/texmf-dist/tex/context/base/mkii/supp-pdf.mkii" 1480098806 71627 94eb9990bed73c364d7f53f960cc8c5b ""
  "/usr/local/texlive/2017/texmf-dist/tex/generic/ifxetex/ifxetex.sty" 1480098815 1458 43ab4710dc82f3edeabecd0d099626b2 ""
  "/usr/local/texlive/2017/texmf-dist/tex/generic/oberdiek/atbegshi.sty" 1480098815 24580 144573175d90c8e36676f97ae1d11ec2 ""
  "/usr/local/texlive/2017/texmf-dist/tex/generic/oberdiek/gettitlestring.sty" 1480098815 8237 3b62ef1f7e2c23a328c814b3893bc11f ""
  "/usr/local/texlive/2017/texmf-dist/tex/generic/oberdiek/hobsub-generic.sty" 1490564930 185082 1fb09d7d24834377f95006300bc91fd2 ""
  "/usr/local/texlive/2017/texmf-dist/tex/generic/oberdiek/hobsub-hyperref.sty" 1480098815 70864 bcd5b216757bd619ae692a151d90085d ""
  "/usr/local/texlive/2017/texmf-dist/tex/generic/oberdiek/ifpdf.sty" 1490564930 1251 d170e11a3246c3392bc7f59595af42cb ""
  "/usr/local/texlive/2017/texmf-dist/tex/generic/oberdiek/ifvtex.sty" 1480098815 6797 90b7f83b0ad46826bc16058b1e3d48df ""
  "/usr/local/texlive/2017/texmf-dist/tex/generic/oberdiek/infwarerr.sty" 1480098815 8253 473e0e41f9adadb1977e8631b8f72ea6 ""
  "/usr/local/texlive/2017/texmf-dist/tex/generic/oberdiek/ltxcmds.sty" 1480098815 18425 5b3c0c59d76fac78978b5558e83c1f36 ""
  "/usr/local/texlive/2017/texmf-dist/tex/generic/pgf/basiclayer/pgfcore.code.tex" 1480098816 1006 b103be0bfc8c1682ff1fa9760697a329 ""
  "/usr/local/texlive/2017/texmf-dist/tex/generic/pgf/basiclayer/pgfcorearrows.code.tex" 1480098816 43226 167a99346bfe2676e3efcdde2d81fe45 ""
  "/usr/local/texlive/2017/texmf-dist/tex/generic/pgf/basiclayer/pgfcoreexternal.code.tex" 1480098816 19302 4f089dc590e71f7331e6d5b5ea85273b ""
  "/usr/local/texlive/2017/texmf-dist/tex/generic/pgf/basiclayer/pgfcoregraphicstate.code.tex" 1480098816 6068 edae1e768a7d8d8f0f00e953d2b0153e ""
  "/usr/local/texlive/2017/texmf-dist/tex/generic/pgf/basiclayer/pgfcoreimage.code.tex" 1480098816 7041 a891ad72049e17c4e366c40ca37b0ccb ""
  "/usr/local/texlive/2017/texmf-dist/tex/generic/pgf/basiclayer/pgfcorelayers.code.tex" 1480098816 4625 40c07e9f6f2f7c674704b3f2055560ce ""
  "/usr/local/texlive/2017/texmf-dist/tex/generic/pgf/basiclayer/pgfcoreobjects.code.tex" 1480098816 2631 7eefa6cdbefd8d4e2bad7262cf1094cd ""
  "/usr/local/texlive/2017/texmf-dist/tex/generic/pgf/basiclayer/pgfcorepathconstruct.code.tex" 1480098816 43477 81143b33d9ebafdeead07ede13372427 ""
  "/usr/local/texlive/2017/texmf-dist/tex/generic/pgf/basiclayer/pgfcorepathprocessing.code.tex" 1480098816 17436 8d99d4113be311daf23deff86991ee7d ""
  "/usr/local/texlive/2017/texmf-dist/tex/generic/pgf/basiclayer/pgfcorepathusage.code.tex" 1480098816 20772 c57e34db4aa7b1da013169d04b743eac ""
  "/usr/local/texlive/2017/texmf-dist/tex/generic/pgf/basiclayer/pgfcorepatterns.code.tex" 1480098816 9641 711f0edc22c180a5caf168b6e8970057 ""
  "/usr/local/texlive/2017/texmf-dist/tex/generic/pgf/basiclayer/pgfcorepoints.code.tex" 1480098816 34516 658a71478d21df554bce9d9cd436203a ""
  "/usr/local/texlive/2017/texmf-dist/tex/generic/pgf/basiclayer/pgfcorequick.code.tex" 1480098816 3052 e5672c657232fd63b0a9853b0746297c ""
  "/usr/local/texlive/2017/texmf-dist/tex/generic/pgf/basiclayer/pgfcorescopes.code.tex" 1480098816 16669 4ec6e40088fc6de6334b443fe2dc59f0 ""
  "/usr/local/texlive/2017/texmf-dist/tex/generic/pgf/basiclayer/pgfcoreshade.code.tex" 1480098816 21541 4cd19f8ff7dd74d5aa7d803a6397af84 ""
  "/usr/local/texlive/2017/texmf-dist/tex/generic/pgf/basiclayer/pgfcoretransformations.code.tex" 1480098816 19998 d77fef95c7369827753d17fd11be19c4 ""
  "/usr/local/texlive/2017/texmf-dist/tex/generic/pgf/basiclayer/pgfcoretransparency.code.tex" 1480098816 8943 2e2495b057f8f0035b5568394d489963 ""
  "/usr/local/texlive/2017/texmf-dist/tex/generic/pgf/frontendlayer/tikz/libraries/tikzlibraryarrows.code.tex" 1480098816 437 cf40f841f40822be6cb995f8b47112fd ""
  "/usr/local/texlive/2017/texmf-dist/tex/generic/pgf/frontendlayer/tikz/libraries/tikzlibraryshapes.geometric.code.tex" 1480098816 457 ffe9f8b9d108b5f729fd86c78c63589a ""
  "/usr/local/texlive/2017/texmf-dist/tex/generic/pgf/frontendlayer/tikz/libraries/tikzlibrarytopaths.code.tex" 1480098816 11599 d694704a88e2f9007c996d3a6a4d629c ""
  "/usr/local/texlive/2017/texmf-dist/tex/generic/pgf/frontendlayer/tikz/tikz.code.tex" 1480098816 176652 1c2926908e2b356d454795c35385d580 ""
  "/usr/local/texlive/2017/texmf-dist/tex/generic/pgf/libraries/pgflibraryarrows.code.tex" 1480098816 31927 7acd27f90dd95ce67ad32166cd0b95ec ""
  "/usr/local/texlive/2017/texmf-dist/tex/generic/pgf/libraries/pgflibraryplothandlers.code.tex" 1480098816 32969 dbcfd5a7de6a0f7255c333ef60287d59 ""
  "/usr/local/texlive/2017/texmf-dist/tex/generic/pgf/libraries/shapes/pgflibraryshapes.geometric.code.tex" 1480098816 132566 291d42c3b23fdb5c47e51b36a5fea0c4 ""
  "/usr/local/texlive/2017/texmf-dist/tex/generic/pgf/math/pgfmath.code.tex" 1480098816 454 9e9e7c99f4da4f41698be21eaef4938e ""
  "/usr/local/texlive/2017/texmf-dist/tex/generic/pgf/math/pgfmathcalc.code.tex" 1480098816 13416 940ea6971d7a65dc440d3479939c66ae ""
  "/usr/local/texlive/2017/texmf-dist/tex/generic/pgf/math/pgfmathfloat.code.tex" 1480098816 94097 62ac62cda46eb715560dc27f9ed6e8b1 ""
  "/usr/local/texlive/2017/texmf-dist/tex/generic/pgf/math/pgfmathfunctions.base.code.tex" 1480098816 9375 5adc70f722abd29fc250d59e0694b548 ""
  "/usr/local/texlive/2017/texmf-dist/tex/generic/pgf/math/pgfmathfunctions.basic.code.tex" 1480098816 22069 7c21c42b15718ce922f36235be360490 ""
  "/usr/local/texlive/2017/texmf-dist/tex/generic/pgf/math/pgfmathfunctions.code.tex" 1480098816 8210 a7be5b52ef3d2c087b7dc3d52898b67e ""
  "/usr/local/texlive/2017/texmf-dist/tex/generic/pgf/math/pgfmathfunctions.comparison.code.tex" 1480098816 3534 c7f28fbac13616513e513efe93b8569b ""
  "/usr/local/texlive/2017/texmf-dist/tex/generic/pgf/math/pgfmathfunctions.integerarithmetics.code.tex" 1480098816 3167 7c9394e79aac27db96a92f9b2792b858 ""
  "/usr/local/texlive/2017/texmf-dist/tex/generic/pgf/math/pgfmathfunctions.misc.code.tex" 1480098816 9289 261407875b9dbb0194691c3eb893610f ""
  "/usr/local/texlive/2017/texmf-dist/tex/generic/pgf/math/pgfmathfunctions.random.code.tex" 1480098816 7078 946ddf4a7e57219b6afdbad98eb6731b ""
  "/usr/local/texlive/2017/texmf-dist/tex/generic/pgf/math/pgfmathfunctions.round.code.tex" 1480098816 2688 139c6abc86761a6190c2f4bef5d752be ""
  "/usr/local/texlive/2017/texmf-dist/tex/generic/pgf/math/pgfmathfunctions.trigonometric.code.tex" 1480098816 92284 dcf023dbaa84e6c50e11c2f79fe8cfa6 ""
  "/usr/local/texlive/2017/texmf-dist/tex/generic/pgf/math/pgfmathparser.code.tex" 1480098816 35430 046e15fbb65e74d8f0e7945f99741fdb ""
  "/usr/local/texlive/2017/texmf-dist/tex/generic/pgf/math/pgfmathutil.code.tex" 1480098816 7099 f44d505bae6c7c2b933cdd63441db4b9 ""
  "/usr/local/texlive/2017/texmf-dist/tex/generic/pgf/modules/pgfmodulematrix.code.tex" 1480098816 20934 2328bd2e04520e1ab077ac4ee13b8935 ""
  "/usr/local/texlive/2017/texmf-dist/tex/generic/pgf/modules/pgfmoduleplot.code.tex" 1480098816 16203 83cbe1220e389eeee283a6168f9a567b ""
  "/usr/local/texlive/2017/texmf-dist/tex/generic/pgf/modules/pgfmoduleshapes.code.tex" 1480098816 42906 d54376d96df1a2ae2d33fb722236d8e9 ""
  "/usr/local/texlive/2017/texmf-dist/tex/generic/pgf/systemlayer/pgf.cfg" 1480098816 978 15af626ebd3d4d790aac19170dac04f2 ""
  "/usr/local/texlive/2017/texmf-dist/tex/generic/pgf/systemlayer/pgfsys-common-pdf.def" 1480098816 5437 d91f93ed61ecdc57e119849b2d784a0b ""
  "/usr/local/texlive/2017/texmf-dist/tex/generic/pgf/systemlayer/pgfsys-pdftex.def" 1480098816 13507 809d848d9262638e1b1705a68a73c566 ""
  "/usr/local/texlive/2017/texmf-dist/tex/generic/pgf/systemlayer/pgfsys.code.tex" 1480098816 35113 2ccc50c1c9573e4bac9230d030f9c67c ""
  "/usr/local/texlive/2017/texmf-dist/tex/generic/pgf/systemlayer/pgfsysprotocol.code.tex" 1480098816 1983 b5994ebbcee17f1ba3d29bb1bd696fcf ""
  "/usr/local/texlive/2017/texmf-dist/tex/generic/pgf/systemlayer/pgfsyssoftpath.code.tex" 1480098816 7881 d459d6057e13d10ce7a227ae44b7295e ""
  "/usr/local/texlive/2017/texmf-dist/tex/generic/pgf/utilities/pgffor.code.tex" 1480098816 22211 d696ef78c12269178882d218b2cf191d ""
  "/usr/local/texlive/2017/texmf-dist/tex/generic/pgf/utilities/pgfkeys.code.tex" 1480098816 36194 e194ef4e0b396b531a3891feb4b1cc22 ""
  "/usr/local/texlive/2017/texmf-dist/tex/generic/pgf/utilities/pgfkeysfiltered.code.tex" 1480098816 33377 af391d6ad1bfcbe2278e191f48e43ba8 ""
  "/usr/local/texlive/2017/texmf-dist/tex/generic/pgf/utilities/pgfrcs.code.tex" 1480098816 2536 a3b0529d815a2759ba157b56610a6377 ""
  "/usr/local/texlive/2017/texmf-dist/tex/generic/pgf/utilities/pgfutil-common-lists.tex" 1480098816 6833 114eda2cf1d348e0e7e477a1a4dc1941 ""
  "/usr/local/texlive/2017/texmf-dist/tex/generic/pgf/utilities/pgfutil-common.tex" 1480098816 16501 ab0135765e27b6b8dae047831fe84818 ""
  "/usr/local/texlive/2017/texmf-dist/tex/generic/pgf/utilities/pgfutil-latex.def" 1480098816 5544 294baac9629ba59f675b1f2027ad7136 ""
  "/usr/local/texlive/2017/texmf-dist/tex/latex/amscls/amsthm.sty" 1480098820 12225 3cca0d18522255979a1047206228b9d0 ""
  "/usr/local/texlive/2017/texmf-dist/tex/latex/amsfonts/amsfonts.sty" 1480098820 5949 3f3fd50a8cc94c3d4cbf4fc66cd3df1c ""
  "/usr/local/texlive/2017/texmf-dist/tex/latex/amsfonts/amssymb.sty" 1480098820 13829 94730e64147574077f8ecfea9bb69af4 ""
  "/usr/local/texlive/2017/texmf-dist/tex/latex/amsfonts/umsa.fd" 1480098820 961 6518c6525a34feb5e8250ffa91731cff ""
  "/usr/local/texlive/2017/texmf-dist/tex/latex/amsfonts/umsb.fd" 1480098820 961 d02606146ba5601b5645f987c92e6193 ""
  "/usr/local/texlive/2017/texmf-dist/tex/latex/amsmath/amsbsy.sty" 1480098820 2210 5c54ab129b848a5071554186d0168766 ""
  "/usr/local/texlive/2017/texmf-dist/tex/latex/amsmath/amsgen.sty" 1480098820 4160 c115536cf8d4ff25aa8c1c9bc4ecb79a ""
  "/usr/local/texlive/2017/texmf-dist/tex/latex/amsmath/amsmath.sty" 1485129665 84329 81aa65c5042562f79cb421feff9b8bdc ""
  "/usr/local/texlive/2017/texmf-dist/tex/latex/amsmath/amsopn.sty" 1480098820 4115 318a66090112f3aa3f415aeb6fe8540f ""
  "/usr/local/texlive/2017/texmf-dist/tex/latex/amsmath/amstext.sty" 1480098820 2431 fe3078ec12fc30287f568596f8e0b948 ""
  "/usr/local/texlive/2017/texmf-dist/tex/latex/base/size11.clo" 1480098821 8308 f91506bb4df6d8527331f7bbeaf0e63c ""
  "/usr/local/texlive/2017/texmf-dist/tex/latex/beamer/art/beamericonarticle.20.pdf" 1480098821 2958 4e0c4a6e994e5c4d9da11c477e927f0f ""
  "/usr/local/texlive/2017/texmf-dist/tex/latex/beamer/art/beamericonarticle.pdf" 1480098821 2936 6cc3ef0682cbb62be8aa1b19f0a84ed6 ""
  "/usr/local/texlive/2017/texmf-dist/tex/latex/beamer/art/beamericonbook.20.pdf" 1480098821 2734 0bcf939051dd2a936cdfe5982f7c233b ""
  "/usr/local/texlive/2017/texmf-dist/tex/latex/beamer/art/beamericonbook.pdf" 1480098821 2667 7624351b441ffe4bd2d14e08fbcf063d ""
  "/usr/local/texlive/2017/texmf-dist/tex/latex/beamer/art/beamericononline.20.pdf" 1480098821 24451 195d2c060e84f339954bc6d9b52131d7 ""
  "/usr/local/texlive/2017/texmf-dist/tex/latex/beamer/art/beamericononline.pdf" 1480098821 24611 df07010540266b2b205b492a4d02e7e1 ""
  "/usr/local/texlive/2017/texmf-dist/tex/latex/beamer/beamer.cls" 1485644465 11394 1c9e801011aca6a6d0f1bbb6e30cd8ca ""
  "/usr/local/texlive/2017/texmf-dist/tex/latex/beamer/beamerbaseauxtemplates.sty" 1483401677 21731 c1b729545246779a6b31bf5941e087e1 ""
  "/usr/local/texlive/2017/texmf-dist/tex/latex/beamer/beamerbaseboxes.sty" 1483401677 8073 df5c1784673e960a504a7c1960c767d3 ""
  "/usr/local/texlive/2017/texmf-dist/tex/latex/beamer/beamerbasecolor.sty" 1485644465 12934 b2be1d3e1f4410bd87d0d5052e334ac2 ""
  "/usr/local/texlive/2017/texmf-dist/tex/latex/beamer/beamerbasecompatibility.sty" 1483401677 23951 2be18aaac57e7b003a2dd3678894ade5 ""
  "/usr/local/texlive/2017/texmf-dist/tex/latex/beamer/beamerbasedecode.sty" 1483401677 8110 8004d63ef543b9b23c6e7dc560fb4661 ""
  "/usr/local/texlive/2017/texmf-dist/tex/latex/beamer/beamerbasefont.sty" 1483401677 13154 49cd4f890d1dc12e13b1096eeebd5388 ""
  "/usr/local/texlive/2017/texmf-dist/tex/latex/beamer/beamerbaseframe.sty" 1483401677 24653 5605c526bad8b8f62913de9b70f2c7e3 ""
  "/usr/local/texlive/2017/texmf-dist/tex/latex/beamer/beamerbaseframecomponents.sty" 1483401677 11823 dacf533ecb38faae14a62339a1d2930e ""
  "/usr/local/texlive/2017/texmf-dist/tex/latex/beamer/beamerbaseframesize.sty" 1483401677 8724 3da64c74fd1533e88179d5635b7ae6fe ""
  "/usr/local/texlive/2017/texmf-dist/tex/latex/beamer/beamerbaselocalstructure.sty" 1485126066 16476 3c0e0f24286ae9928c174b5d228d58e2 ""
  "/usr/local/texlive/2017/texmf-dist/tex/latex/beamer/beamerbasemisc.sty" 1483401677 7786 a80c4b0c3ef835f5d8d67f4cc406619c ""
  "/usr/local/texlive/2017/texmf-dist/tex/latex/beamer/beamerbasemodes.sty" 1483401677 7975 6a9ae479bde064cb007c99f98ecd5014 ""
  "/usr/local/texlive/2017/texmf-dist/tex/latex/beamer/beamerbasenavigation.sty" 1483401677 28642 1bc1a7997379e267814f79e79d937ae1 ""
  "/usr/local/texlive/2017/texmf-dist/tex/latex/beamer/beamerbasenotes.sty" 1483401677 5089 d1a219ad836534cde171e32e4bd371b9 ""
  "/usr/local/texlive/2017/texmf-dist/tex/latex/beamer/beamerbaseoptions.sty" 1483401677 1691 ac3beb98c5ef2001e78841fd15c135be ""
  "/usr/local/texlive/2017/texmf-dist/tex/latex/beamer/beamerbaseoverlay.sty" 1485644465 25922 7137380db48891e687fe3d407c8cae17 ""
  "/usr/local/texlive/2017/texmf-dist/tex/latex/beamer/beamerbaserequires.sty" 1483401677 1628 dcc7a38bae749fce269a21909d42abe8 ""
  "/usr/local/texlive/2017/texmf-dist/tex/latex/beamer/beamerbasesection.sty" 1485126066 12772 7a67626061d635da3a647d29ebd3ccca ""
  "/usr/local/texlive/2017/texmf-dist/tex/latex/beamer/beamerbasetemplates.sty" 1483401677 5726 c4401209883cbda4b9486a7b03ad59b8 ""
  "/usr/local/texlive/2017/texmf-dist/tex/latex/beamer/beamerbasethemes.sty" 1483401677 1075 10ca10a8f9786d9ac59b8556bee74109 ""
  "/usr/local/texlive/2017/texmf-dist/tex/latex/beamer/beamerbasetheorems.sty" 1483401677 4521 fde07c5df6cf557c1dca08fba0d6cdb8 ""
  "/usr/local/texlive/2017/texmf-dist/tex/latex/beamer/beamerbasetitle.sty" 1483401677 5557 8f51f675f7268597e91a7939f527ff7f ""
  "/usr/local/texlive/2017/texmf-dist/tex/latex/beamer/beamerbasetoc.sty" 1483401677 7295 12ad048d3d33fddeaaa09bed4d5ed7a3 ""
  "/usr/local/texlive/2017/texmf-dist/tex/latex/beamer/beamerbasetranslator.sty" 1483401677 637 685bd3d40aca2fa87965a39bc31aca7f ""
  "/usr/local/texlive/2017/texmf-dist/tex/latex/beamer/beamerbasetwoscreens.sty" 1483401677 1374 26178e35fc3b706eebcfc6de25351f5a ""
  "/usr/local/texlive/2017/texmf-dist/tex/latex/beamer/beamerbaseverbatim.sty" 1483401677 3966 7d83dcb30c657a13d19400cb4b6f681a ""
  "/usr/local/texlive/2017/texmf-dist/tex/latex/beamer/themes/color/beamercolorthemedefault.sty" 1483401677 7009 0c0d2f1522ee889efa73dff176c38a43 ""
  "/usr/local/texlive/2017/texmf-dist/tex/latex/beamer/themes/color/beamercolorthemeorchid.sty" 1483401677 835 ac57517533d993c08f21ee9ac10445d7 ""
  "/usr/local/texlive/2017/texmf-dist/tex/latex/beamer/themes/color/beamercolorthemewhale.sty" 1483401677 1013 bbd3a76e797308a780fd7196c973ec2e ""
  "/usr/local/texlive/2017/texmf-dist/tex/latex/beamer/themes/font/beamerfontthemedefault.sty" 1483401677 4103 d8b0a00217353484fb55f9d4472ad021 ""
  "/usr/local/texlive/2017/texmf-dist/tex/latex/beamer/themes/inner/beamerinnerthemedefault.sty" 1483401677 12755 a5870f4049cd06a3113b3ed0ff6a7d0f ""
  "/usr/local/texlive/2017/texmf-dist/tex/latex/beamer/themes/inner/beamerinnerthemerounded.sty" 1483401677 803 c9259a3143a30943225238f39d5b043e ""
  "/usr/local/texlive/2017/texmf-dist/tex/latex/beamer/themes/outer/beamerouterthemedefault.sty" 1483401677 6446 cebfbda0c5047bb9f0a637ef56929c3a ""
  "/usr/local/texlive/2017/texmf-dist/tex/latex/beamer/themes/outer/beamerouterthemesmoothbars.sty" 1483401677 3484 2043aaf950d9095168caa1c08464f233 ""
  "/usr/local/texlive/2017/texmf-dist/tex/latex/beamer/themes/theme/beamerthemeDarmstadt.sty" 1483401677 407 dbcf4970a434266e93a95fc1573541b2 ""
  "/usr/local/texlive/2017/texmf-dist/tex/latex/beamer/themes/theme/beamerthemedefault.sty" 1483401677 355 75c98e7b8f427eb7c625ed391b140c5b ""
  "/usr/local/texlive/2017/texmf-dist/tex/latex/beamer/translator/dicts/translator-basic-dictionary/translator-basic-dictionary-English.dict" 1480098821 3435 0a4d096dde3f8fe682c2aedd33b8137d ""
  "/usr/local/texlive/2017/texmf-dist/tex/latex/beamer/translator/dicts/translator-bibliography-dictionary/translator-bibliography-dictionary-English.dict" 1480098821 903 c6d17f0656e9e1abb172b4faebabd617 ""
  "/usr/local/texlive/2017/texmf-dist/tex/latex/beamer/translator/dicts/translator-environment-dictionary/translator-environment-dictionary-English.dict" 1480098821 433 bfb8d1c2c020defd2de8e5c276710094 ""
  "/usr/local/texlive/2017/texmf-dist/tex/latex/beamer/translator/dicts/translator-months-dictionary/translator-months-dictionary-English.dict" 1480098821 1337 9a6c05e8f0c8b3c5f27cbd0e455cf475 ""
  "/usr/local/texlive/2017/texmf-dist/tex/latex/beamer/translator/dicts/translator-numbers-dictionary/translator-numbers-dictionary-English.dict" 1480098821 1638 2bf1a1dea98f8a4d28033fce76e9cc67 ""
  "/usr/local/texlive/2017/texmf-dist/tex/latex/beamer/translator/dicts/translator-theorem-dictionary/translator-theorem-dictionary-English.dict" 1480098821 3523 1f9d9b91f7d78b73e74c7e97bca30fb0 ""
  "/usr/local/texlive/2017/texmf-dist/tex/latex/beamer/translator/translator-language-mappings.tex" 1483401677 5119 71b31bb700c1486fddecd875be4e1688 ""
  "/usr/local/texlive/2017/texmf-dist/tex/latex/beamer/translator/translator.sty" 1483401677 3881 a0552e5c21c45573b5971c0252abf6c9 ""
  "/usr/local/texlive/2017/texmf-dist/tex/latex/booktabs/booktabs.sty" 1480098823 5869 94335281ffcab47f341cf07ea8220e30 ""
  "/usr/local/texlive/2017/texmf-dist/tex/latex/caption/caption.sty" 1480098823 66233 8b81cfab95a1f8fc2f0f6c89415b087a ""
  "/usr/local/texlive/2017/texmf-dist/tex/latex/caption/caption3.sty" 1480098823 64866 1ea74c5f2d1685881497f021b8f186b2 ""
  "/usr/local/texlive/2017/texmf-dist/tex/latex/eepic/epic.sty" 1480098827 25873 0e813d2f6e266780f0cedef5eb5e2525 ""
  "/usr/local/texlive/2017/texmf-dist/tex/latex/etoolbox/etoolbox.sty" 1483484472 42324 d951db30d0cb2b811f084fa3f92aec16 ""
  "/usr/local/texlive/2017/texmf-dist/tex/latex/filehook/filehook.sty" 1480098828 12104 88bda8c1ae09e2b6dc29ed32629eafa1 ""
  "/usr/local/texlive/2017/texmf-dist/tex/latex/geometry/geometry.sty" 1480098829 40502 e003406220954b0716679d7928aedd8a ""
  "/usr/local/texlive/2017/texmf-dist/tex/latex/graphics-cfg/color.cfg" 1480098830 1213 620bba36b25224fa9b7e1ccb4ecb76fd ""
  "/usr/local/texlive/2017/texmf-dist/tex/latex/graphics-cfg/graphics.cfg" 1480098830 1224 978390e9c2234eab29404bc21b268d1e ""
  "/usr/local/texlive/2017/texmf-dist/tex/latex/graphics-def/pdftex.def" 1485129666 58250 3792a9d2d1d664ee8c742498e295b051 ""
  "/usr/local/texlive/2017/texmf-dist/tex/latex/graphics/graphics.sty" 1492297155 14603 b288c52bd5d46d593af31dbc7e548236 ""
  "/usr/local/texlive/2017/texmf-dist/tex/latex/graphics/graphicx.sty" 1480098830 8125 557ab9f1bfa80d369fb45a914aa8a3b4 ""
  "/usr/local/texlive/2017/texmf-dist/tex/latex/graphics/keyval.sty" 1480098830 2594 d18d5e19aa8239cf867fa670c556d2e9 ""
  "/usr/local/texlive/2017/texmf-dist/tex/latex/graphics/trig.sty" 1480098830 3980 0a268fbfda01e381fa95821ab13b6aee ""
  "/usr/local/texlive/2017/texmf-dist/tex/latex/hyperref/hpdftex.def" 1489964469 51983 9a4f683a2a7b213874a28bc4008b84d9 ""
  "/usr/local/texlive/2017/texmf-dist/tex/latex/hyperref/hyperref.sty" 1489964469 233808 b63d91422c362e723c6e8b1a2fffcba5 ""
  "/usr/local/texlive/2017/texmf-dist/tex/latex/hyperref/nameref.sty" 1480098831 12949 81e4e808884a8f0e276b69410e234656 ""
  "/usr/local/texlive/2017/texmf-dist/tex/latex/hyperref/pd1enc.def" 1489964469 14098 7631f11156e5f9cd76010dbd230aa268 ""
  "/usr/local/texlive/2017/texmf-dist/tex/latex/latexconfig/epstopdf-sys.cfg" 1480098833 678 4792914a8f45be57bb98413425e4c7af ""
  "/usr/local/texlive/2017/texmf-dist/tex/latex/latexconfig/hyperref.cfg" 1480098833 235 6031e5765137be07eed51a510b2b8fb7 ""
  "/usr/local/texlive/2017/texmf-dist/tex/latex/ms/everyshi.sty" 1480098835 3878 6aa7c08ff2621006e0603349e40a30a8 ""
  "/usr/local/texlive/2017/texmf-dist/tex/latex/oberdiek/auxhook.sty" 1480098836 3834 4363110eb0ef1eb2b71c8fcbcdb6c357 ""
  "/usr/local/texlive/2017/texmf-dist/tex/latex/oberdiek/epstopdf-base.sty" 1480098836 12095 5337833c991d80788a43d3ce26bd1c46 ""
  "/usr/local/texlive/2017/texmf-dist/tex/latex/oberdiek/grfext.sty" 1480098836 7075 2fe3d848bba95f139de11ded085e74aa ""
  "/usr/local/texlive/2017/texmf-dist/tex/latex/oberdiek/kvoptions.sty" 1480098836 22417 1d9df1eb66848aa31b18a593099cf45c ""
  "/usr/local/texlive/2017/texmf-dist/tex/latex/oberdiek/rerunfilecheck.sty" 1480098836 9581 023642318cef9f4677efe364de1e2a27 ""
  "/usr/local/texlive/2017/texmf-dist/tex/latex/oberdiek/transparent.sty" 1480098836 3565 4692144368346ec2c9a7250b7e1a5546 ""
  "/usr/local/texlive/2017/texmf-dist/tex/latex/overpic/overpic.sty" 1480098836 3093 5d139c33b9cbb5c9f10ff883c2af52ad ""
  "/usr/local/texlive/2017/texmf-dist/tex/latex/pgf/basiclayer/pgf.sty" 1480098837 1197 8a80cdde14696a9198f1793a55dcf332 ""
  "/usr/local/texlive/2017/texmf-dist/tex/latex/pgf/basiclayer/pgfcore.sty" 1480098837 410 5bf12ea7330e5f12c445332a4fe9a263 ""
  "/usr/local/texlive/2017/texmf-dist/tex/latex/pgf/compatibility/pgfcomp-version-0-65.sty" 1480098837 21115 facf03b7dbe5ea2f5f1dce1ac84b5d05 ""
  "/usr/local/texlive/2017/texmf-dist/tex/latex/pgf/compatibility/pgfcomp-version-1-18.sty" 1480098837 1091 d9163d29def82ee90370c8a63667742c ""
  "/usr/local/texlive/2017/texmf-dist/tex/latex/pgf/frontendlayer/tikz.sty" 1480098837 339 592cf35cba3d400082b8a9a5d0199d70 ""
  "/usr/local/texlive/2017/texmf-dist/tex/latex/pgf/math/pgfmath.sty" 1480098837 306 0796eafca5e159e6ec2167a6d22d81b1 ""
  "/usr/local/texlive/2017/texmf-dist/tex/latex/pgf/systemlayer/pgfsys.sty" 1480098837 443 0b2e781830192df35c0fd357cf13e26e ""
  "/usr/local/texlive/2017/texmf-dist/tex/latex/pgf/utilities/pgffor.sty" 1480098837 348 8927fde343487e003b01a4c2ca34073b ""
  "/usr/local/texlive/2017/texmf-dist/tex/latex/pgf/utilities/pgfkeys.sty" 1480098837 274 4cad6e665cc93ac2ac979039a94fa1e1 ""
  "/usr/local/texlive/2017/texmf-dist/tex/latex/pgf/utilities/pgfrcs.sty" 1480098837 325 2bcd023400636339210573e2b3ee298b ""
  "/usr/local/texlive/2017/texmf-dist/tex/latex/pgf/utilities/xxcolor.sty" 1480098837 2267 e82edfd18fbf4047c6f20ed9467f27db ""
  "/usr/local/texlive/2017/texmf-dist/tex/latex/sansmathaccent/ot1mathkerncmss.fd" 1480098838 1299 299fd4fecf7d7085f0a8361bcf0e7804 ""
  "/usr/local/texlive/2017/texmf-dist/tex/latex/sansmathaccent/sansmathaccent.sty" 1480098838 4280 a62885a2f2d4221d634eb6cd5559e518 ""
  "/usr/local/texlive/2017/texmf-dist/tex/latex/subfig/subfig.sty" 1480098839 21369 9ef165ca6df8815c92e693146a376c92 ""
  "/usr/local/texlive/2017/texmf-dist/tex/latex/tools/enumerate.sty" 1480098841 3467 d39e40f25d5fd2b3b49a58d155063dd6 ""
  "/usr/local/texlive/2017/texmf-dist/tex/latex/url/url.sty" 1480098842 12796 8edb7d69a20b857904dd0ea757c14ec9 ""
  "/usr/local/texlive/2017/texmf-dist/tex/latex/xcolor/xcolor.sty" 1480098843 55589 34128738f682d033422ca125f82e5d62 ""
  "/usr/local/texlive/2017/texmf-dist/web2c/texmf.cnf" 1494087824 32646 eadc4ca26cdbe7105ac7c593aa8c4f72 ""
  "/usr/local/texlive/2017/texmf-var/fonts/map/pdftex/updmap/pdftex.map" 1495593472 2350277 a699055bee05bf8a40b0504752487295 ""
  "/usr/local/texlive/2017/texmf-var/web2c/pdftex/pdflatex.fmt" 1514341937 4129593 d5f3dd8f08b14f248a6777dc66593b9f ""
  "/usr/local/texlive/2017/texmf.cnf" 1495593465 577 2b71d4d888f9e5560b2e99985915a9fa ""
  "BPL_Sim.pdf" 1516621097 41043 0a3aa68ab5afa6ace10c127ae975f09a ""
  "CRFeature.jpg" 1516621097 41840 21f379226d4fd59aef05746e6261aa20 ""
  "FluxfromExposure.pdf" 1516621097 19200 7442f1c9654991cb85d186fceb2a2574 ""
  "ModelvsMeasurement.pdf" 1516621097 35934 333a028c7ad943b4ee57702e35408df1 ""
  "ProtonSpectrumModelMeasurement.pdf" 1527754831 28215 29275f0e1f685bba079a68359b30b635 ""
  "SPL_Sim.pdf" 1516621097 20099 10220e7053a5ad527dd2e79996f76ff1 ""
  "cntmap.png" 1516621097 131076 48b8f7dc0692d3a1fe15a4988017e298 ""
  "expmap.png" 1516621097 435203 4f613b451dcceed97152c1bf4fec43e4 ""
  "flxmap.png" 1516621097 132728 0ce350350c3de2aaf4509eac19bc6b9b ""
  "lat_production_schematic.pdf" 1516621097 99952 b1898e4f821e68946679c6300e42035a ""
  "montestat.png" 1531587030 243008 bff4f60c80971605697e9424e9adef11 ""
  "montetot.png" 1531586915 229505 1935d60242bd5c53f6debda4f43f1d0e ""
  "proton_spectrum.png" 1516621097 414630 67805479a93e5779bdfa63ccd3d93cf1 ""
  "slide_progress.aux" 1531637808 8187 e7805a97827dda644bd33c7c9d6486c3 ""
  "slide_progress.nav" 1531637808 4864 cb37d8c5054b0a324bfb8175a2e6eade ""
  "slide_progress.out" 1531637808 802 4701b444b892bc96ca8b24b4c9f71d8f ""
  "slide_progress.tex" 1531637804 26468 cf012a14dee4bd18b127782e4d3dd753 ""
  "slide_progress.toc" 1531637808 768 9c8830f0d28cd105d21fd128a59d0b38 ""
  (generated)
  "slide_progress.aux"
  "slide_progress.toc"
  "slide_progress.out"
  "slide_progress.snm"
  "slide_progress.pdf"
  "slide_progress.nav"
  "slide_progress.log"
